<?xml version="1.0" encoding="utf-8"?>
<!-- Generator: Adobe Illustrator 19.2.1, SVG Export Plug-In . SVG Version: 6.00 Build 0)  -->
<svg version="1.1" id="Layer_1" xmlns="http://www.w3.org/2000/svg" xmlns:xlink="http://www.w3.org/1999/xlink" x="0px" y="0px"
	 viewBox="0 0 139.4 139.8" style="enable-background:new 0 0 139.4 139.8;" xml:space="preserve">
<style type="text/css">
	.st0{opacity:0.5;}
	.st1{fill-rule:evenodd;clip-rule:evenodd;stroke:#ED1C24;stroke-miterlimit:10;}
</style>
<g class="st0">
	<g>
		<path class="st1" d="M9.5,53.6C5.8,57,3.1,60.6,1.6,65c3.7-6.6,9.3-11.7,14.1-17.8c0.3,1.9,0.7,3.4,0.6,4.8
			c-0.1,1.4-0.8,3-1.5,4.3c-1.7,3.2-1.3,6.5-0.6,9.7c0.2,0.8,0.2,1.6-0.2,2.3c-1.2,2.5-2.3,5.1-3.5,7.6c-0.9,1.9-2.1,3.6-1.6,5.8
			c0.2,1,0.4,1.8,1.2,2.5c1.7,1.5,2.9,3.3,3.7,5.5c0.2,0.6,0.3,1-0.4,1.3c-1.2,0.6-1.8,2.2-1.4,3.6c0.6,2.2,1.3,2.3,3,0.9
			c0.3-0.3,0.6-0.5,0.8,0c0.2,0.6,1.1,1.6,0.5,1.8c-1.1,0.3-0.3,0.8-0.2,1c2.2,3.7,3.7,7.8,5.7,11.6c0.6,1.1,0.9,2.3,1.9,3.2
			c-0.6-2.4-2.6-4.3-2.5-6.8c0.7,0.6,1.4,1.1,2,1.7c1.4,1.4,2.7,2.8,2.5,5.1c0,0.2,0.1,0.5,0.3,0.5c0.3,0,0.4-0.2,0.4-0.4
			c0-0.5-0.1-1-0.1-1.5c0-0.3-0.1-0.8,0.3-0.7c1.4,0.1,2.2-0.9,3.2-1.8c0.4,2,0.9,3.9,1.2,5.7c0.9,4.5,1.4,9.1,4.5,12.9
			c1.2,1.4,2.2,2.9,4.3,3.2c3.6,0.5,6.8-0.7,9.9-2c1.7-0.7,2.9-2,4.4-3c0.9-0.6,1.7-1.5,2.9-1.3c2.6,0.4,5.1,0.9,7.8,0.8
			c1,0,2.1,0,2.9,1c2.1,2.8,2.4,2.9,5.7,1.6c0.4-0.1,0.7-0.3,1.1-0.5c3.4-2.1,7.1-2.4,10.9-2.4c-0.3,0.2-0.6,0.4-0.9,0.5
			c-3,1.4-5.8,3.2-9.2,3.4c-2,0.1-4.1,0.5-6.1-0.2c-2.6-0.9-5.2-0.7-7.7-0.1c-2.2,0.5-4.1,1.8-6.3,2.4c-2.4,0.6-4.6,1.9-6.9,2.5
			c-0.5,0.1-0.5,0.3-0.3,0.7c0.2,0.4,0.4,0.4,0.7,0.1c1.9-1.3,4.2-1.8,6.4-2.3c-0.9,0.8-1.8,1.6-2.4,2.7c2.2-1.7,4.6-3,6.9-4.5
			c2.3-1.5,5.1-0.6,7.6-1.2c-1.2,0.6-2.2,1.4-3.2,2.2c-1.4,1.2-1.5,2.6-1.5,4.2c0,0.4,0.2,0.9,0.6,0.9c1.3-0.1,1.2,0.8,1.3,1.7
			c0,0.7,0.2,1.7,1.1,1.8c0.8,0.1,1.4-0.5,1.8-1.2c0.1-0.3,0.3-0.6,0.4-0.8c0.1-0.3,0.3-0.5,0.6-0.5c1.4-0.1,2.2-1.1,3-2
			c1.2-1.5,1.2-2.2-0.2-3.5c-0.5-0.5-1.3-0.9-1.6-1.9c6.7,0.8,12.4-1.7,18.1-4.8c0,0.8-0.1,1.3-0.1,1.8c0,0.4,0.2,0.8,0.6,1
			c0.9,0.4,3.1-0.6,3.8-1.8c0.6-1,0.3-1.8-0.8-2.3c1.9-1.2,3.4-2.6,5.7-2.7c1.3-0.1,2.5-0.8,3.4-1.9c1.5-2,3.6-3.1,5.6-4.4
			c0.3-0.2,0.6-0.3,1.1-0.1c-0.9,1.7-2.5,2.8-3.5,4.3c-1.5,2.2-2.1,3.8-1.7,5c0.3-0.3,0.4-0.6,0.6-1c0.7-1.8,1.5-3.6,2.9-4.8
			c1-0.8,2-1.3,2.4-2.6c0.2-0.6,0.6-1.5,1.3-1.1c0.6,0.4-0.1,1.1-0.4,1.6c-0.2,0.4-0.8,0.8-0.1,1.2c0.6,0.3,0.8-0.3,1.1-0.7
			c0.5-0.9,0.9-1.8,1.3-2.6c0.2-0.5,0.8-0.6,1.2-0.7c0.2-0.1,0.3,0,0.3,0.3c0.1,1.2,0.7,1.7,1.8,1.5c0.9-0.2,1.9,0.3,2.7-0.5
			c0.7-0.7,0.9-1.3,0.5-2.2c-0.4-1.1-1.4-1.1-2.2-1c-1,0.1-0.8-0.3-0.8-0.9c0-0.5,0.4-0.7,0.7-0.9c1.5-1,2.8-2.3,4.2-3.5
			c3.7-3.2,7.7-6,12.2-7.9c0.7-0.3,1.4-0.4,2.2-0.5c0.5-0.1,1-0.3,0.8-0.9c-0.2-0.7-0.6-0.4-1.1-0.3c-2.7,0.8-5.2,2-7.6,3.5
			c-0.1,0.1-0.3,0.2-0.5,0c0-0.9,0.6-1.7,1.1-2.4c1.9-2.4,4.4-4,7-5.4c1.6-0.9,3.3-1.6,5-2.4c0.3-0.2,0.8-0.3,0.5-0.7
			c-0.2-0.5-0.6-0.3-1-0.1c-1.5,0.8-3,1.5-4.5,2.2c-1.8,0.9-1.8,0.9-1.8-1.1c0-0.1-0.1-0.1-0.2-0.2c-0.5,0.6-1.2,1.2-1.9,1.5
			c-0.5,0.2-0.8,0.7-0.6,1.2c0.3,1.1-0.2,1.7-1,2.3c-0.6,0.4-1.2,0.9-1.7,1.5c-1.1,1.3-2.3,2.6-2.3,4.5c0,0.4-0.1,0.6-0.4,0.7
			c-2.5,1.3-4.8,2.9-7.3,5.1c0.5-2.3,0.6-4.3,0.4-6.3c-0.2-1.8,0.8-2.6,2-3.9c-0.2,2.4-0.7,4.6-0.1,6.7c0.4-1.8,0.4-3.6,0.8-5.3
			c0.3-1.6-0.1-3.6,2-4.4c0.1,0,0.3-0.3,0.3-0.4c-0.3-1.6,0.7-1.6,1.9-1.7c1.6-0.1,2.9-2.1,2.2-3.2c-0.4-0.5-0.3-0.9,0-1.3
			c0.1-0.2,0.3-0.4,0.1-0.6c-0.1-0.2-0.4-0.2-0.6-0.1c-0.2,0.1-0.5,0.4-0.7,0.2c-0.3-0.3-0.1-0.6,0.1-1c0.8-1.6,1.1-3.4,1.6-5.1
			c0.6-2.2,0.8-4.5,2.7-6.2c0.3-0.3,0.6-0.7,0.9-1c1.1-1.5,1-2.4-0.4-3.6c-0.4-0.4-1.1-0.7-0.7-1.4c0.4-0.6,0.7-1.7,1.8-1.3
			c1.2,0.4,2.5,0.8,3.2,2c0.6,1,1.2,2,1.8,3c0.1,0.2,0.2,0.7,0.6,0.5c0.3-0.2,0.2-0.5,0-0.8c-1.6-2.5-3.2-4.9-5.2-7.1
			c-0.4-0.5-1-0.9-1.2-1.7c0.5,0,0.9,0.1,1.3,0.1c0.4,0,0.8,0.4,1.2-0.2c0.4-0.7-0.3-0.6-0.6-0.9c-0.4-0.5-0.3-1.1-0.2-1.6
			c0.1-0.5,0.6,0,0.9-0.1c1.7-0.1,3.4-0.1,4.9-0.9c1.4-0.8,0.9-2.7,2.1-3.6c0.3-0.2,0-0.7-0.2-1c-0.4-0.5-0.9-0.8-1.6-0.9
			c-0.7-0.1-1.2-0.2-0.9-1.2c0.3-0.9-0.4-1.5-1.3-1.4c-1.7,0.2-3.4,0.9-4.7,2c-1,0.8-0.7,2-0.8,3.1c0,0.1,0,0.2,0,0.3
			c-0.1,0.3-0.1,0.8-0.6,0.7c-0.4,0-0.5-0.4-0.5-0.7c0.1-2.4-0.3-4.9-0.1-7.3c0.1-0.9,0.8-1.6,1-2.4c0.3-1.6,1.1-2.8,2.5-3.7
			c1.3-0.9,1.5-2.5,0.6-3.8c-0.6-0.9-1.5-0.9-3.1-0.1c-0.3,0.2-0.6,0.5-0.8-0.2c-0.2-0.7-0.5-1.3-0.6-2c-0.3-3.4-1.4-6.6-1.7-10.1
			c-0.7,1-0.5,2-0.3,2.9c0.5,1.7,0.3,3.4,0.3,5.1c0,2-0.2,2,1,3.2c0.2,0.2,0.3,2.9-0.1,3.4c0.2-0.9,0-1.4-0.6-2.1
			c0.1,1.4,0,2.5,0.7,3.5c0.4,0.5-0.1,0.9-0.1,1.3c0,0.1-0.6,0.3-0.8,0.2c-0.5-0.1-0.4-0.6-0.4-1c-0.3-1.8-0.5-3.6-0.8-5.6
			c-0.2,0.5-0.4,0.8-0.4,1.1c0.1,1.2,0.3,2.4,0.4,3.6c0.1,1.2,0.5,2.3-0.4,3.5c-0.4,0.5-0.7,1.7,0.2,2.1c1.2,0.4,1.2,1.3,1.4,2.3
			c0.2,1.2,0.4,2.5,0.4,3.7c0,0.9,0.9,1.6,0.4,2.6c-0.8-0.4-2.2-0.3-2.2-1.3c-0.1-2.5-0.5-4.9-1.4-7.3c-0.9-2.2-1.3-4.5-2.1-6.7
			c-0.5-1.3-1.5-2.5-1.6-3.9c0-1-0.5-1.4-1-1.9c-1.6-1.5-3.7-2.3-5.5-3.5c-2.6-1.8-5.2-3.7-8-5.1c-0.4-0.2-0.7-0.4-0.5-0.9
			c0.4-1.7-0.9-2.8-1.7-4c-0.3-0.5-0.5-0.7,0-1.2c0.8-0.8,0.7-1.9-0.1-2.6c-1.4-1.3-3.4-1.6-5.1-0.7c-0.5,0.2-0.7,0.1-0.9-0.3
			c0.4-0.4,0.9-0.3,1.3-0.6c0.7-0.5,2.5-0.3,1.2-2c-0.2-0.2,0.1-0.5,0.3-0.7c0.4-0.3,0.8-0.6,1.2-0.8c2.3-1.1,2.8-2,2.4-4.4
			c-0.2-1.5-1-2.1-2.4-1.6c-0.9,0.3-0.9-0.1-1.1-0.7c-0.5-1.9-2.5-2.6-4.1-1.5c-1,0.7-1.7,1.7-1.9,3c-0.3,1.7,0.2,3.2,1,4.7
			c-1,0.4-1.9-1.1-2.7,0c-0.6,0.8-0.1,1.8-0.2,2.7c-1.6-0.2-2.8-1.2-4.2-1.5c-1.1-0.2-2.3,0-3.2-0.6c-1.4-1-2.8-1.1-4.4-1
			c0.6,0.8,1.6,0.1,2.4,0.9c-1-0.1-1.8-0.1-2.6-0.1c-0.8-0.1-1.7-0.4-2.2-0.4c-3.6,0.4-5.5-1.7-7.2-4.5C70.2,5.1,68.7,3,66.9,1
			C66.5,0.5,66-0.1,65,0c0.1,0.2,0.1,0.4,0.2,0.4c2.4,2.2,4.1,5,5.9,7.7c0.2,0.3,0.4,0.6,0.4,1c0,0.5-0.1,0.6,0.2,0.7
			c1.3,0.8,2.1,2,3.2,3.3c-1.2,0-1.8-0.8-2.6-0.9c-0.8-0.1-1.7,0-2.4-0.6c-0.5-0.4-1.1-0.1-1.3,0.4c-0.6,1.5-1.7,1.2-2.9,1
			c-1-0.2-2-0.6-3,0c-0.3,0.2-0.7,0.4-1,0.1c-0.3-0.3,0-0.7,0.1-1c0.2-0.7,0.5-1.4-0.1-2.1c-1.1-1.4-3.2-1.5-4.9-0.2
			c-1.4,1.1-1.5,2.6-0.4,4.1c-0.2,0.1-0.4,0.2-0.6,0.3c-3.3,0.5-6.4,1.6-9.5,2.9c-0.5,0.2-1,0.2-1.4,0.1c-1.1-0.2-1.7,0.4-2.1,1.3
			c-0.6,1.7-2.3,1.9-3.5,2.7c0.5-1.2,1.5-2.2,1.3-3.6c-0.2-1.6-2.4-3.6-4.5-4.1c-1.2-0.3-2.3-0.7-3.3,0.5c-1.2,1.5-1.2,2,0.1,4
			c-0.4,0.2-0.8,0.3-1.2,0.5C30.6,19,30.4,20,31.2,21c0.6,0.7,2.3,1.2,3.1,0.7c0.7-0.4,1.2-0.5,1.3,0.6c0.1,0.9,0,1.9-0.6,2.6
			c-0.4,0.6-1,1-1.3,1.7c-0.6,1.1-1.6,1.7-2.5,2.3c-3,1.9-5.6,4.2-7.8,7c-1.5,2-2.9,4-4.6,5.8c-2.6,2.6-4.7,5.6-7.1,8.4
			c-1,1.1-1.7,2.7-3.2,3c-1.7,0.4-3.3,1-4.8,1.8c-1.9,0.9-3.3,2-3.8,3.2C2.7,55.8,5.7,54.3,9.5,53.6z M65.2,134.6
			c-0.2,0.4-0.5,0.7-1,0.5c-0.5-0.2-0.3-0.6-0.2-1c0.2-1.5,1.2-2.3,2.8-3.1C66.1,132.4,65.7,133.5,65.2,134.6z M66.5,138
			c-0.1,0.2-0.3,0.4-0.5,0.2c-0.1-0.1-0.3-0.4-0.3-0.6c0-1.1,0.4-2,1.3-3C67.6,136.1,66.9,137,66.5,138z M70.9,133.5
			c0.3,0.4-1.4,2.5-1.9,2.4c-0.3,0-0.3-0.3-0.3-0.5c0-0.5,0-1.1,0-1.6c0,0,0,0,0,0c0,0,0-0.1,0-0.1c0.1-0.7-0.4-1.9,0.3-2
			C69.8,131.6,70.3,132.8,70.9,133.5z M131.4,57.8c1.7-0.9,3.6-0.3,5.4-0.9C136.2,58.2,133.2,58.7,131.4,57.8z M136.7,54.3
			c0.5,0.1,1.3-0.2,1.2,0.6c-0.1,0.9-0.9,0.8-1.6,0.8c-0.3-0.1-1.2,0.2-1.1-0.4C135.3,54.7,135.9,54.2,136.7,54.3z M133.3,52.3
			c0.4-0.2,0.8-0.3,1.2-0.5c0.3-0.1,0.7-0.3,0.9,0c0.2,0.3,0.1,0.8-0.2,1.1c-0.9,0.8-2,1.3-2.6,2.4c-0.1,0.2-0.7,0.5-1.2,0.3
			c-0.2-0.1-0.2-0.4-0.3-0.5C131.2,53.7,132.2,53,133.3,52.3z M15.2,57.7c0.1-0.4,0.5-0.3,0.8-0.1c0.4,0.3,1.3,0.2,1,1
			c-0.7,1.7-1,3.5-1.6,5.1c-0.1,0.2-0.2,0.5-0.5,0.3c-0.1,0-0.2-0.3-0.2-0.4c-0.1-0.8-0.2-1.7-0.3-2.5C14.2,59.9,15,58.9,15.2,57.7z
			 M16.2,68.2c-0.1-0.2-0.2-0.4-0.1-0.5c1.3-1.7,1.1-4.1,2.9-5.6c-0.7,4.2-1.5,8.3-0.9,12.6C17.4,72.5,16.9,70.3,16.2,68.2z
			 M17.1,77.1c-0.2,0.1-0.4-0.1-0.4-0.2c-0.6-2-2.3-3.6-2.1-5.9c0-0.5,0-1.2,0.6-1.3c0.5-0.1,0.6,0.6,0.7,1c0.5,2,1,3.9,1.5,5.9
			C17.3,76.8,17.4,77,17.1,77.1z M18.1,78.9c0.4-0.2,0.5,0.2,0.6,0.4c0.3,0.6,0.4,1.2,0.3,2c-0.8-0.4-0.9-1.2-1.2-1.7
			C17.7,79.4,17.8,79.1,18.1,78.9z M15.5,65.2c0.5-2.2,1-4.3,2-6.3c0.3-0.5,0.7-0.6,1.2-0.7c0.3-0.1,0.6,0.1,0.5,0.4
			C18.1,60.8,17.1,63.2,15.5,65.2z M23.7,103.5c-0.4,0.8-0.5,1.7-0.4,3c-2.3-2.1-4.1-4-4.9-6.7c-1.1-3.9-2.3-7.7-3.8-11.5
			c-0.7-1.9-1.6-3.9-3.5-5.1c-1.1-0.7-1-2.1-0.7-3.2c0.7-2.4,2-4.6,3-6.9c0.1-0.2,0.2-0.4,0.5-0.4c0.3,0,0.3,0.3,0.4,0.5
			c0.8,2.1,1.6,4.1,2.5,6.2c0.7,1.5,1.6,2.9,2.5,4.4c0.9,1.4,1.3,3,1.4,4.7c0.1,3,0.5,5.9,0.9,8.9c0.1,0.5,0.1,1,0.1,1.4
			c0,1.1,0.3,2,1.3,2.6C23.8,101.7,24.3,102.4,23.7,103.5z M26.3,100.9c-0.7,0.6-1.1,0.2-1.7-0.2c-1.2-0.9-1.7-2-1.9-3.4
			c-0.3-1.8-0.5-3.7-0.7-5.6c0-0.2,0-0.5,0.3-0.6c0.7,0.6,1,1.5,1.1,2.3c0.3,2.3,1.6,4,2.7,5.9C26.4,99.8,27.1,100.3,26.3,100.9z
			 M22.2,62c0.1-0.5,0.5-0.5,0.8-0.3c0.3,0.3,1.2,0.2,0.8,1c-0.6,1.2-1.6,2.3-1.7,3.8C21.5,65,22,63.5,22.2,62z M27.8,98.3
			c-1.2-2.4-3.2-4.3-3.8-7c-0.1-0.5-0.4-1,0.2-1.4c0.6-0.4,0.9,0.2,1.3,0.4c2,1.1,2.6,2.9,2.7,5C28.1,96.3,28.2,97.3,27.8,98.3z
			 M29.1,88.9c-0.6-1.6-1.3-3.2-1.3-5c0-0.7,0.1-1.4-0.1-2.1c-0.1-0.6-0.2-1.6-1.3-1c-0.3,0.2-0.5-0.1-0.6-0.3c-1-1.9-1.9-3.7-1-5.9
			C25,74,25,73.5,25,73c0.2-1.1-0.1-2.4,1.4-2.8c0.2-0.1,0.1-0.3,0.1-0.5c-0.3-3,0.9-5.6,2.1-8.1c1.8-3.8,3.7-7.7,5.9-11.4
			c0.4-0.6,0.7-1.1,1.5-1.3c3.6-0.6,5.1-3.2,5.8-6.5c-1.5,2.3-2.1,5.6-5.8,5.6c0-0.1-0.1-0.2,0-0.3c1-1.7,2-3.5,3.1-5.2
			c0.4-0.6,0.6-1.2,0.9-1.8c1.3-3,2.9-5.9,5.1-8.2c1-1.1,2.8-1.3,4.3-1.8c3.2-1.2,6.4,0,9.6-0.2c0.2,0,0.5,0.1,0.6,0.2
			c1.5,1.5,3.5,1.9,5.3,2.8c6,3,11.5,1.8,16.9-1.3c1.9-1.1,2.7-3,3.9-4.6c0.1-0.2,0.2-0.4,0.3-0.6c1.7-2.5,1.6-2.4,4.5-1.4
			c2.9,0.9,5.1,2.8,7.5,4.5c2.2,1.5,4.3,3.2,6.8,4.3c1.2,0.5,2.1,1.5,3.2,2.3c0.7,0.5,0.5,1.3,0.4,2c-0.1,0.6-0.3,1.1-0.3,1.7
			c0,0.4,0.1,0.9,0.7,1c0.5,0.1,0.7-0.2,0.8-0.7c0.1-0.2,0.2-0.3,0.4-0.6c0.8,1.3,1.2,2.8,2,4c0.4,0.6-0.3,1-0.7,1.3
			c-1,0.8-1.5,1.9-1.7,3.1c-0.2,1.2,0,2.3,1.1,3c0.5,0.3,0.6,0.6,0.8,1.1c0.5,1.8,1.9,2.6,3.7,2.1c0.4-0.1,0.6-0.2,0.9,0.4
			c0.5,1.1,1.5,1.5,2.7,0.9c0.9-0.5,1.1-0.1,1.3,0.7c0.4,1.6,0.1,3.1-1,4.4c-1,1.2-1.2,2.6-1.3,4.1c-0.1,1.3,0.3,2.1,1.5,2.4
			c0.5,0.1,0.9,0.3,1.4,0.4c0.7,0.2,0.9,0.4,0.4,1.1c-1.3,2-3.2,3.5-5,4.9c-3.6,2.7-5.8,6.2-5.9,10.8c0,1.2-1.4,2.7-2.7,3.2
			c-0.9,0.3-1.8,0.5-2.6,1.1c-1.3,1-1.6,1.7-0.7,3c0.7,1,0.4,1.7,0,2.7c-2.1,4.5-4.8,8.6-6.8,13.1c-0.3,0.6-0.6,1.3-1,1.8
			c-0.4,0.6-0.9,1-1.7,0.5c-1.2-0.7-2.6-0.8-4-0.8c-0.8,0-1.5,0.1-1.7,1.2c-0.1,0.7-1.3,0.3-1.8,0.8c-0.1,0.1-0.4-0.1-0.5,0
			c-1.5,1.5-2.6,0-3.7-0.7c-1-0.5-1.9-1.2-2.8-1.7c-0.7-0.4-0.5-0.7,0.1-1c1.3-0.5,2.6-1,4-1.5c2.6-0.9,5.2-1.9,7.6-3.3
			c-3.3,0.9-6.4,2.1-9.6,3.2c1.2-1.4,2.7-2.4,4.5-2.9c0.4-0.1,0.8-0.1,0.8-0.6c-0.1-0.6-0.6-0.3-1-0.3c-1.7,0.3-2.8,1.4-4.1,2.3
			c-0.5,0.3-0.9,0.8-1.4,1.2c-1.3,0.9-2.3,1.5-4.3,1c-4.4-1.3-10,0.7-13.1,5.2c-1,1.4-1.6,1.5-3.2,0.6c0.9-1,2.1-1.9,1.3-3.5
			c-0.4-0.8-2.6-1.1-3.5-0.6c-1.3,0.9-0.2,1.9,0,3.1c-1.1-0.4-2.2-0.5-3.2-1c-3.3-1.8-7-2.5-10.4-3.9c-2.1-0.8-4.5-1.2-6-3.2
			c-0.4-0.6-0.5-0.9,0-1.4c2.1-2.4,1.8-5.1,0.6-7.7c-0.2-0.5-0.3-0.8,0.2-1.2c0.7-0.6,0.7-1.5,0.3-2.3c-0.4-0.8-1.1-1.2-1.9-1.1
			c-0.9,0.1-1.9,0.1-2.4,1.1c-0.1,0.1-0.2,0.3-0.4,0.3c-0.9,0.1-2.4-1.4-2.4-2.3c0-1.1,0.1-2,1.3-2.6c2.2-1,2.3-2.1,0.6-4
			c0.8-0.2,1.5-0.3,2.1-0.6c1.2-0.5,1.9-1.5,1.7-2.4c-0.4-1.3-2-2.4-3.1-2.1c-1,0.3-1.1,0.1-1.1-0.8c0-1.2-1-1.6-2-0.8
			c-1.4,1-1.4,1-2.6-0.4c1.2,1.8,0.4,3.4-0.4,4.9c-0.4,0.7-0.3,1.4,0.2,2.1c0.6,0.8,0.8,1.8,1.2,2.7c0.2,0.6,0.5,1.3,1,1.7
			c0.8,0.7,0.4,1.6,0.4,2.5c0,0.3-0.3,0.5-0.6,0.4C30.2,89.8,29.4,89.7,29.1,88.9z M26.8,49.2c0.1-0.1,0.1-0.2,0.2-0.2
			c3-0.2,3.2,0.1,2.3,2.9c-0.5,1.6-0.8,3.3-1.7,4.7c-0.6,0.8-0.9,1.4-1.7,0.2c-0.1-0.2-0.4-0.3-0.6-0.5c1.6-0.6,2.2-2,2.9-3.2
			C29.2,51.4,27,50.6,26.8,49.2z M34.4,38.6c0.2-0.3,0.5-0.6,0.9-0.8c0.7-0.5,1.5-0.9,2.3-1.4c0.6-0.4,1.2-1.3,1.9-0.6
			c0.4,0.4-0.4,1.1-0.8,1.6c-1.7,2.8-3,5.8-4.8,8.6c-0.5,0.7-0.7,1.7-1.2,2.4c-0.2,0.3-0.5,0.4-0.9,0.4c-0.3-0.1-0.2-0.3-0.2-0.5
			C32.2,44.9,32.8,41.6,34.4,38.6z M34.1,33.8c2.3-1.7,4.1-3.6,6.4-5C40,30.5,36,33.8,34.1,33.8z M30.3,47.9
			c-0.2,0.9-0.8,0.6-1.4,0.6c-0.7,0-1.7,0.3-2.1-0.3c-0.3-0.7,0.4-1.4,0.8-2c1-1.6,1.9-3.3,3.3-4.7c0.3-0.3,0.5-0.6,1.1-0.6
			C31.5,43.3,30.9,45.6,30.3,47.9z M44.8,25.3c-0.9,0.6-1.8,1.1-2.8,1.5c-0.2-1-0.2-2.2,0.4-2.5C43.2,23.9,44.1,24.7,44.8,25.3z
			 M44.4,23.9c0.9-0.5,1.5-1.1,2.5-0.7C46.3,24.9,46.1,25,44.4,23.9z M43.3,28.9c-0.6,0.8-1.2,1.5-1.8,2.2
			C41.4,29.8,41.9,29.1,43.3,28.9z M57,22.9c1-0.3,1.8-0.2,2.3,0.9c0.3,0.7,1.5,1.1,1.1,1.8c-0.4,0.6-1.4,0-2.1,0c-2-0.2-4-0.2-6,1
			c1.7,0,3.1-1,4.7-0.4c-1.7,1-3.4,1.3-5.1,1.9c-0.4,0.2-0.8,0.1-1-0.3c-0.2-0.5,0.7-0.2,0.4-0.8c-0.2,0.1-0.4,0.1-0.5,0.2
			c-0.4,0.4-0.7,0.2-1-0.1c-0.4-0.3-0.1-0.6,0.1-0.9c0.9-1.3,2.3-2,3.8-2.4C54.8,23.3,55.9,23.2,57,22.9z M54.9,22.5
			c0.8-0.5,1.5-1.1,2.7-0.6C56.6,22.5,55.7,22.3,54.9,22.5z M81.8,16.8c1.1,0,1.9-0.2,2.9,0.1C83.7,17.9,82.9,17.8,81.8,16.8z
			 M87,23.4c0,0.1-0.1,0.2-0.1,0.3c-1.5-0.4-3.1-0.8-4.6-1.3C84.2,21.7,85.5,22.7,87,23.4z M84.7,23.8c2.6,0.7,2.5,0.7,0.9,2.9
			c-0.8,1.1-1.4,2.3-2.2,3.4c-2.1,2.7-5.1,3.5-8.1,4.2c-5.5,1.2-10.2-1-14.7-3.8c1.1-0.8,2.3-0.8,3.4-1.4c2-1,3.8-2.2,5.7-3.4
			c1.9-1.1,4-1.7,6.1-2.1c0.9-0.2,1.8-0.2,2.6-0.5C80.5,22.2,82.6,23.2,84.7,23.8z M57.8,28.8c1.9-0.7,3.7-1.1,5.6-0.6
			C62.5,29.3,59.2,29.7,57.8,28.8z M63.5,27.1c1.5-0.5,2.9-1.1,4.5-1.7C67.3,26.4,65.6,27.1,63.5,27.1z M66,22.2
			c-0.6,1.8-2,2.6-3.7,2.7c-1.3,0.1-2.1-1-2.7-2.3c2-0.4,3.9-0.8,5.8-1.1C66.1,21.3,66.3,21.5,66,22.2z M95.4,19.2
			c0.3-0.2,0.7-0.3,1.1-0.3c0.5,0.1,0.4,0.7,0.3,0.9c-0.5,0.8,0.1,1.3,0.5,2.1c-1.5-0.5-2.7-0.9-4-1.4c0.7-1.3,1.7-0.3,2.4-0.5
			C95.9,19.7,95,19.6,95.4,19.2z M108.3,31.6c1.5,0.7,2,2.3,3,3.4c0.1,0.1,0.1,0.3,0,0.5c-0.1,0.2-0.3,0.1-0.5,0
			c-0.8-0.4-1.6-0.8-1.8-1.8C109,32.9,108.7,32.3,108.3,31.6z M115.7,49.2c-1.5,0-2.7,0.4-3.7,1.3c-0.5,0.5-1.2-0.1-1.4-0.9
			c-0.2-1,0.9-3.4,1.8-4c0.2-0.1,0.4-0.2,0.6,0C113.8,46.9,115,47.7,115.7,49.2z M114.7,43.4c0.5-0.4,0.7,0.1,1,0.3
			c1,1.1,1.7,2.3,1.7,3.9c-0.9,0.1-1.4-0.5-1.8-1.1c-0.4-0.6-0.7-1.3-1.1-2C114.2,44,114.4,43.7,114.7,43.4z M113.9,42.9
			c-0.4,0.3-0.5,0-0.7-0.3c-0.6-0.7-1.1-1.5-1.7-2.2c1,0.2,1.7,0.9,2.4,1.6C114.2,42.3,114.3,42.6,113.9,42.9z M120.4,60.8
			c0.4,1.9,0.6,3.5,0.7,5.1c0,0.5,0.5,1.2-0.3,1.3c-0.8,0.1-1.7,0-2-1.1C118.5,64.1,119.2,62.5,120.4,60.8z M92,113.7
			c1.3-0.1,2.6,0,3.7-0.8c0.2-0.1,0.4-0.2,0.6-0.2c0.8,0.1,1.9,0.2,2.1,1c0.2,0.7-0.8,0.7-1.3,1c-2.7,1.5-5.4,1.2-8.4,0.2
			C89.9,114,90.9,113.8,92,113.7z M89.6,111.6c0-0.5,0.2-0.9,0.8-0.9c1.1,0,2.3-0.1,3.5,0.5c-1.1,1.3-2.6,0.7-3.9,0.9
			C89.6,112.3,89.5,111.9,89.6,111.6z M98.2,112.1c-0.3,0-0.6-0.2-0.6-0.5c0.2-0.4,0.2-0.9,0.7-1.1c1.3-0.4,2.1-1.5,2.8-2.6
			c1-1.5,2.4-2.9,3.2-4.5c0.8-1.9,2.3-3.6,2.6-5.7c0.1-0.4,0.2-0.8,0.6-0.3c0.4,0.5,1,0.9,1.5,1.3c0.5,0.3,0.3,0.6,0.1,1
			c-1.8,2.9-3.6,5.8-5.4,8.7c-0.9,1.5-2.4,2.6-3.6,3.9C99.4,113.1,98.9,112.2,98.2,112.1z M105.8,92.1c-0.2,0.4-0.5,0.3-0.7-0.1
			c-0.5-0.8-0.5-1.6,0.4-2.2c0.7-0.5,1.3-1,2.4-1C107.5,90.2,106.4,91,105.8,92.1z M108.3,93.5c0.5-1.4,1-2.9,1.6-4.4
			c0.1-0.3,0.2-0.6,0.6-0.7c0.4,0,0.4,0.4,0.5,0.7c0.5,1,0.9,1.9,1.5,2.8c0.3,0.4,0.3,0.8,0.1,1.3c-0.6,1.4-1.5,2.7-2.2,4.1
			c-0.2,0.5-0.5,0.6-1,0.2c-0.7-0.6-1.5-1-1.8-1.9C107.6,94.9,108,94.2,108.3,93.5z M109.9,100.1c0.2-0.3,0.5-0.6,0.9-0.3
			c0.5,0.3,0.2,0.6,0,0.9c-0.6,0.8-1.2,1.6-2.3,2C109,101.8,109.4,101,109.9,100.1z M111,98.2c0.9-1.2,1.3-2.6,1.9-3.9
			c0.1-0.1,0.3-0.2,0.5-0.4c0.4,0.4,1,0.8,0.7,1.5c-0.5,1.2-1.1,2.4-1.9,3.4c-0.2,0.3-0.4,0.4-0.8,0.1
			C111.1,98.7,110.7,98.5,111,98.2z M113.8,89.8c-0.3,0.4,0,1.2-0.7,1.3c-0.5,0-0.6-0.7-0.8-1.1c-0.3-0.6-0.5-1.2-0.8-1.8
			c-0.1-0.5,0.2-0.7,0.6-0.8c0.8-0.2,1.7-0.6,2.2-0.2c0.5,0.4-0.1,1.3-0.3,1.9C114,89.4,114,89.6,113.8,89.8z M112.7,86.3
			c0.9-1.1,1.9-1.9,3.1-2.8C115.2,86.2,115.2,86.2,112.7,86.3z M111.4,83.9c0.2-5.2,3.2-7.6,8.7-11.6
			C118.9,77.6,116.1,81.5,111.4,83.9z M68.9,113.7c1.4-1,2.9-1.9,4.4-2.7c0.7-0.4,1.5-0.9,2.5-0.5c0.5,0.2,0.9-0.4,1.4-0.7
			c0.9-0.6,1.7-0.7,2.5,0c1.3,1.1,3,1.6,4.3,2.8c-1.8,0.8-3.5,0.8-5.3,1.1c-1.8,0.3-3.5,0.9-5.2,1.4c-3,0.8-6,1.8-9.3,1.2
			c-0.8-0.1-1.6,0-2.4,0c0.3-0.9,0.9-1.4,1.8-1.2C65.6,115.7,67.3,114.9,68.9,113.7z M63.8,113.4c2.1-2.9,4.9-4.8,8.5-5.3
			c1.5-0.2,3.1-0.4,4.7,0.4c-3.7,1.6-7.2,3.2-10.3,5.4c-0.9,0.6-1.9,0.4-2.9,0.3C63.2,114.2,63.6,113.7,63.8,113.4z M51.2,113.4
			c-1.7-0.4-2.8-1.6-4.3-2.3c-1.1-0.5-2.4-1-3.2-2.4c3.1,0.9,5.9,2.2,8.8,3c3,0.8,5.6,2.4,8.6,3.1c-0.2,0.6-0.4,1-1.2,0.7
			C57,114.8,54.1,114.1,51.2,113.4z M51.5,117.4c-1-0.1-1.9-0.3-2.9-0.4C49.7,116.7,50.7,116.4,51.5,117.4z M33.9,109.8
			c-0.4-0.6-0.4-1.2,0.1-1.6c0.6-0.5,0.8,0.3,1.1,0.6c1.8,2,3.1,4.3,5.2,6c0.6,0.5,1.5,0.6,2,1.5c-1.5,0.6-3,0.5-4.5,0.9
			c-0.4,0.1-0.6-0.2-0.8-0.6C36.3,114.3,35.4,111.9,33.9,109.8z M35.5,115.2c-1.1-0.4-1.7-1.1-2.5-1.6c-0.5-0.3-0.3-2.6,0.2-2.8
			c0.4-0.2,0.6,0.2,0.7,0.4C34.7,112.3,35.1,113.6,35.5,115.2z M32.4,83.5c0.6-0.2,1.2,0.5,1.4,1c0.3,0.7-0.5,0.9-0.9,1.2
			c-0.2,0.1-0.4,0.3-0.7,0.1c0-0.2,0-0.5,0-0.8C32.2,84.5,31.7,83.7,32.4,83.5z M32,81.4c-0.6-0.2-0.4-0.4-0.2-0.8
			c0.5-0.7,2.5-1.7,3.4-1.7c0.6,0.1,1.3,0.3,1.5,1.1c0.1,0.8-0.6,1-1.1,1.3C34.4,81.9,33.2,81.7,32,81.4z M33.2,91.8
			c1.6,0.7,2.4,2.4,1.7,3.6c-0.1,0.2-0.2,0.7-0.5,0.4c-0.9-0.8-2.1-1.2-2.6-2.4c-0.1-0.2-0.1-0.4-0.1-0.5
			C31.7,91.6,32.1,91.3,33.2,91.8z M34.4,96.8c1.3,1.6,1.6,1.7,3.3,0.4c0.2-0.1,0.4-0.2,0.6-0.3c0.8,1.8,0.3,4.1-1,5.3
			c-0.4,0.3-0.7,0.3-0.9-0.1c-0.5-1.2-1.9-1.7-2.6-2.8c-0.8-1.4-1.6-2.7-2.1-4.3C32.8,95.4,33.7,96,34.4,96.8z M36.1,106.9
			c-0.3-0.2-0.8-0.3-0.4-0.7c0.3-0.4,0.7-0.4,1-0.1c0.4,0.3,0.8,0.7,0.9,1.4C36.9,107.4,36.5,107.2,36.1,106.9z M40,111.1
			c0.4,1.1,1.1,2.1,1.7,3.1c-1.4-0.2-4.3-3.2-5.6-5.8C37.8,108.9,39.3,109.3,40,111.1z M43.4,117.4c0.3,0,0.5,0.1,0.7,0.3
			c2.3,1.6,4.3,3.7,6.4,5.6c-1.2,0.3-2.1-0.1-3-0.5c-3.1-1.3-6.7-1.5-9-4.6C40.2,117.9,41.8,117.6,43.4,117.4z M44.5,114.9
			c-0.8-1.2-1.6-2.3-2.3-3.5c-0.1-0.1-0.3-0.3,0-0.6c1.7,1.6,3.4,3.2,5.2,4.9C46.1,116.1,45.2,116,44.5,114.9z M31.2,84.9
			c-0.2-0.6-0.4-1.1-0.6-1.7c-0.1-0.2-0.2-0.4,0.1-0.5c0.2-0.1,0.4,0.1,0.5,0.3C31.5,83.6,31.5,84.2,31.2,84.9z M30.2,90.7
			c0.4,0.2,1,0.3,1,0.9c0,0.4-0.1,0.8-0.6,1c-0.6-0.3-0.6-1-0.8-1.5C29.6,90.7,29.9,90.6,30.2,90.7z M30.3,100.9
			c0.4-0.7,0.7-0.1,0.9,0c1.2,0.9,2.5,1.8,3.5,3.1c-1.1-0.4-2.2-0.8-3.4-0.7C30.3,103.3,29.8,101.8,30.3,100.9z M32.4,109.5
			c-0.2,0.8-0.1,2.2-1,2.2c-0.6,0-0.6-1.4-0.7-2.2c-0.2-1,0.8-0.7,1.3-0.9c0.7-0.2,0.2,0.5,0.5,0.6
			C32.4,109.3,32.4,109.4,32.4,109.5z M33.1,114.5c0.9,0.5,1.6,1.3,2.1,2.1c0.1,0.2,0.4,0.5,0.1,0.7c-0.1,0.1-0.4,0.1-0.6,0.1
			c-1.2-0.2-2.3-1.4-2.3-2.7C32.4,114.5,32.4,114.2,33.1,114.5z M46.7,129.2c-1.7,0.5-3.4,1.3-5.3,1.2c-1.9-0.1-3.4-0.6-4.6-2.2
			c-2.1-2.7-3.8-5.6-4.3-9c0-0.3-0.1-0.5-0.1-0.8c0-0.1,0-0.3,0.1-0.5c1.1,0.5,2.2,0.7,3.3,0.7c0.2,0,0.4,0,0.5,0.1
			c1,2,3.1,2.6,4.8,3.7c1.7,1.1,3.8,1.8,5.8,2.3c1.4,0.4,2.8,0.7,4.3,0.8c0.4,0,0.8-0.1,1.1,0.4C50.8,127.5,48.8,128.6,46.7,129.2z
			 M57.5,120.3c-0.3,0.5-0.6,1-0.8,1.5c-0.4,0.8-1.3,1.1-1.9,0.8c-2.7-1.1-5.5-2.3-7.7-4.4c-0.1-0.1-0.1-0.2-0.2-0.6
			c3.6,0.2,7,0.9,10.3,1.7C57.7,119.5,57.9,119.8,57.5,120.3z M58.8,120c0.6-0.4,0.9,0.4,1.5,0.5c-0.8,0.8-1.6,1-2.5,1.3
			C57.9,121,58.2,120.4,58.8,120z M65.8,124.2c-2.5,0-5-0.3-7.6-0.7c0.2-0.3,0.2-0.3,0.2-0.3c2.6-2.3,5.1-1,7.5,0.3
			c0.2,0.1,0.4,0.3,0.4,0.5C66.4,124.2,66.1,124.2,65.8,124.2z M66.3,119.9c2.1-0.1,4-1.2,6.1-1.2c3.4,0,6.8-0.2,10.1-1.3
			c0.5-0.2,1.1-0.2,1.7,0.4c0.5,0.5,1.4,0,1.7-0.5c1-1.5,1.9-2.5,3.8-1.2c0.4,0.3,1.3,0.2,2,0.8c-4.2,1.4-8,3.4-12.1,4.6
			c-2.2,0.6-4.4,0.2-6.6-0.1c-2.1-0.3-4.1-0.6-6.2-0.8C66.6,120.4,66.4,120.2,66.3,119.9z M69.9,127.2c-0.5-0.3-0.9-0.7-0.8-1.2
			c0.1-0.4,0.8-0.2,1.2-0.2c0.7,0,1.3,0.1,2,0.2c0.7,0,1.3,0.1,2.2,0.1C72.7,127.6,71.1,127.9,69.9,127.2z M69.5,123
			c-0.6,0.1-1-0.2-1.5-0.3c-0.5-0.1-0.9-0.6-0.8-1.1c0.1-0.7,0.7-0.3,1.1-0.3c2,0.1,4,0.3,6.3,0.4C72.7,122.5,71.1,122.6,69.5,123z
			 M76.3,124c2.2-1.2,4.2-1.7,6.4-1.3C80.7,123.1,78.9,124.6,76.3,124z M87.2,123.4c1.6-0.6,2.9-1.8,4.8-1.9
			C90.8,122.7,89.3,123.3,87.2,123.4z M83.4,121.3c4-1.7,7.9-3.7,12.5-4.8C92.4,120.3,88.2,121.5,83.4,121.3z M98.4,119.2
			c-0.2,0.2-0.5,0.3-0.8,0.4c-0.4,0.1-0.7,0.2-1-0.2c-0.2-0.4,0.2-0.5,0.4-0.7c1-1,1.9-2.1,2.9-3.1c1-0.9,2.4-0.8,3.7-1
			C101.6,115.9,99.9,117.5,98.4,119.2z M108.7,111.1c-0.5,0.8-4.1,2.1-6,2c2.8-2.6,5.6-4.9,7.7-7.8
			C110.5,106.6,109.8,109.1,108.7,111.1z M104.4,110.3c-0.1,0-0.2,0-0.4,0.1c0.9-1.9,2.5-2.9,3.6-4.4c1.2-1.6,2.6-3,3.9-4.5
			c0.2-0.2,0.3-0.7,0.8-0.3c0.3,0.3,0.1,0.6-0.1,0.8C109.7,104.8,107.3,107.8,104.4,110.3z M115.2,104.6c-0.4,1.8-0.7,3.7-2.5,4.8
			c-0.6,0.4-1.1,0.3-0.9-0.4c0.6-2,1.3-3.9,1.9-5.9c0.2-0.5,0.5-0.3,0.7-0.1C115.1,103.4,115.4,104,115.2,104.6z M115.4,102
			c-1.3-0.6-1.3-0.6-0.1-2.1C115.7,100.7,115.4,101.3,115.4,102z M115.7,92.1c-0.2,0.6-0.5,1.1-0.8,1.7c-0.8-0.8-1.1-1.4-0.5-2.5
			c0.6-1.1,0.9-2.4,1.3-3.6c0.1-0.3,0-0.8,0.6-0.8c0.6,0,0.5,0.6,0.5,0.9C117,89.4,116.1,90.7,115.7,92.1z M116.4,93.3
			c0.6-1.2,0.3-2.8,1.6-3.7C117.1,90.7,117.4,92.3,116.4,93.3z M117.6,85.5c-0.1,0.5-0.4,0.8-1,0.7c-0.6-0.2-0.2-0.6-0.2-1
			c0.1-1,0.6-1.9,0.9-2.9c0.2-0.7,0.8-0.8,1.8-0.9C118.5,82.8,118,84.1,117.6,85.5z M121.9,81.5c0,0.2,0,0.4,0,0.5
			c0,0.7,0,1.4-0.3,2.1c-0.4,0.8-1.5,1.1-2.2,0.6c-0.4-0.2-0.2-0.5-0.1-0.8c0.3-0.9,0.7-1.8,1-2.7c0.2-0.6,0.6-1.1,1.3-0.9
			C122.2,80.4,121.8,81.1,121.9,81.5z M124.9,81.1c-0.6-1.3-0.3-2.5,1.1-3.8C125.7,78.7,125.4,79.9,124.9,81.1z M128.7,70
			c0.5,0.3,1.1,0.7,0.7,1.3c-0.6,0.9-1.1,1.8-2.2,2.5c-0.2-1.3-0.4-2.4,0.4-3.3C127.9,70.1,128.1,69.6,128.7,70z M128.8,59
			c0-0.2,0-0.5,0.3-0.5c0.2,0,0.4,0.1,0.6,0.3c0.6,0.6,0.7,1.5,0.9,2.4C129.4,60.8,128.7,60.3,128.8,59z M129.1,63.1
			c0.7,0.9,1.4,1.7,2.1,2.5c-1.1-0.1-2-0.2-2.9,0.2c-0.8,0.3-1.4-0.2-1.8-0.8c-0.5-0.6-0.4-1.2,0.1-1.8
			C128.1,61.3,127.6,61.3,129.1,63.1z M127.7,58.5c-0.8-0.4-1-1.2-1.6-1.7C127.7,56.9,128,57.2,127.7,58.5z M126.8,61.7
			c-0.1,0.2-0.3,0.5-0.6,0.4c-0.3-0.1-0.3-0.4-0.3-0.6c-0.1-0.6-0.2-1.3-0.3-2.3C126.4,60,127.7,60.3,126.8,61.7z M124.5,63.2
			c0.2-0.7,0.4-1.4,0.7-2.1c0.3,1,0.8,2-0.6,3C124.6,63.6,124.5,63.4,124.5,63.2z M126.2,73.2c0.3,1.9-0.4,3.4-2.2,4.7
			C124.1,75.9,125.5,74.9,126.2,73.2z M124.1,57.2c0,2.1-0.1,4.2-1,6.2c-0.1-2-0.3-4-0.4-6c0-0.4,0.1-1,0.5-1.1
			C123.6,56.3,124,56.8,124.1,57.2z M123.1,52.7c0.1,0.4,0.6,0.9,0.1,1.2c-0.5,0.3-0.9-0.3-1.2-0.8c-0.9-1.6-0.7-3.4-0.9-5.1
			c0.8,0.8,0.9,1.9,1.3,2.8C122.7,51.5,122.9,52.1,123.1,52.7z M120.5,39.3c0.8,2.1,1.6,3.9,1.9,6C119.5,42.9,119,41.4,120.5,39.3z
			 M119.6,38.2c0.3-0.2,0.4,0.3,0.3,0.6c-0.3,0.6-0.5,1.3-0.8,1.9c-0.1,0.2-0.3,0.4-0.5,0.2c-0.3-0.2-0.6-0.4-0.7-0.9
			C118.5,39.5,118.8,38.6,119.6,38.2z M114,32.9c0.3,0.1,0.5,0.2,0.7,0.4c1.2,1.1,2.5,2,3.6,3.1c0.6,0.5,0.5,0.9,0.1,1.4
			c-1.4,2.2-1.4,2.2-3.2,0.3c-0.5-0.5-1.1-1.1-1.6-1.6c-1.2-1.2-1.2-2,0-3.3C113.7,33.1,113.8,33,114,32.9z M112.8,33.2
			c-0.9,1.5-0.9,1.5-2,0.2c-0.4-0.5-0.5-1-0.8-1.7c0.9,0.2,1.7,0.4,2.4,0.6C113,32.5,113.2,32.7,112.8,33.2z M111.4,30.6
			c-2.8-0.1-5-1.2-6.3-3.7C107.4,27.7,109.4,29.1,111.4,30.6z M104.1,24c0.5,0.1,0.8,0.6,0.9,1.1c0.1,0.2,0,0.4-0.4,0.4
			c-0.3-0.2-0.9-0.2-1-0.8C103.7,24.4,103.9,23.9,104.1,24z M105.4,30.8c-2.6-0.2-9-4-11-6.6C98.6,25.9,102.6,27.2,105.4,30.8z
			 M101,8.3c0.5-0.4,1-1.2,1.7-0.5c0.6,0.5,0.5,2.2-0.2,2.6c-0.9,0.6-1.9,1.1-2.9,1.7C99.6,10.6,99.9,9.3,101,8.3z M97.3,5.4
			c0.6-0.6,1.1-0.7,1.8-0.3c0.7,0.4,1,1,0.6,1.8c-0.8,1.5-1.1,3.2-1.7,5C95.7,9.9,95.5,7.2,97.3,5.4z M94.6,13.5c0.2-0.6,1,0,1.6,0
			c0.3,0,0.6,0.2,0.9,0.3c0.4,0.1,0.9,0.3,0.8,0.7C97.8,15,97.2,15,96.8,15c-0.3,0-0.5,0-0.8-0.1C95.2,14.7,94.3,14.3,94.6,13.5z
			 M87.1,13c1.4,0.1,2.6,0.6,3.8,1.2c2,0.9,4,1.8,6,2.7c0.3,0.1,0.5,0.2,0.5,0.5c0,0.3-0.4,0.3-0.6,0.4c-1.3,0.6-2.4,0.4-3.4-0.6
			c-0.8-0.8-2-1.2-2.6-2.2c-0.5-0.7-1-0.5-1.6-0.2c-1.3,0.7-2.4,0.1-2.7-1.4C86.3,13,86.4,12.9,87.1,13z M76.6,13
			c-0.1-0.3,0.9-0.6,1.5-0.6c1.8,0.1,3.6,0.5,5.4,0.4c1.7-0.1,2.5,0.8,3.1,2.2c0.1,0.3,0.5,0.6,0.3,1.1c-2.2-0.7-4.4,0-6.6,0
			c-1.8,0-3.4-1.3-4.9-2.3C75.7,13.2,76.9,14.5,76.6,13z M69.2,18.2c0.2-0.1,0.5-0.3,0.7-0.2c1.7,0.3,3.4,0.5,5.4,1.4
			c-2.4,0.8-4.2-0.3-6.1-0.4C68.7,18.9,68.9,18.5,69.2,18.2z M72.9,21.7c-2.4,0.7-4.6,1.3-6.8,2c0.5-0.9,0.4-2.1,1.4-2.4
			C68.8,20.7,71.4,20.9,72.9,21.7z M34.8,14.5c1.6,0,3.1,0.9,3.3,2.1c0.1,0.4,0.1,0.8-0.4,1.1c-1.4,0.6-3.7-0.2-4.3-1.5
			C33.1,15.4,33.9,14.5,34.8,14.5z M33,20.4c-0.3-0.1-0.6-0.2-0.6-0.6c0-0.3,0.4-0.3,0.6-0.4c0.9-0.4,1.8-0.1,3,0
			C35.1,20.4,34.3,21.1,33,20.4z M37.1,24c1.2-1.2,2.5-2.2,4.1-2.9c0.3-0.1,0.5-0.4,0.8-0.2c0.3,0.2,0,0.5,0,0.7
			c0,0.3-0.4,0.8,0.2,0.8c0.5,0.1,0.5-0.4,0.5-0.7c0.5-2.3,2.1-3.6,4.6-3.7c0.1,0,0.2,0,0.3,0c0-1.6,1.5-1.3,2.3-1.7
			c0.9-0.5,2-0.6,3-0.9c2.1-0.6,4.1-1.2,6.4-0.9c0.6,0.1,1.2-0.1,1.9-0.6c-0.1,1.1-0.3,2,0,3c0.4,1.1,1.1,1.6,2.1,1
			c1.4-0.8,2.9-1.6,3.3-3.4c0.1-0.3,0.1-0.7,0.6-0.6c0.6,0.1,0.3,0.5,0.2,0.8c-0.1,0.3-0.2,0.7-0.3,1c-0.3,0.8-0.2,1.3,0.8,1
			c0.3-0.1,0.7-0.1,0.7,0.2c0.1,0.5-0.4,0.4-0.7,0.4c-3.6,0.5-7,1.6-10.4,2.6c-0.8,0.2-1.5,0.1-2.2,0c-0.2,0-0.6-0.3-0.6-0.4
			c0.1-1-0.7-0.8-1.1-1.1c-1.2-0.8-1.8-0.3-2.3,0.7c-0.5,0-0.7-0.7-1.2-0.6c0.7,0.9,0,2.5-1.3,3.1c-1.2,0.5-2.4,0.8-3.7,1.1
			c-2.4,0.5-4.7,1.2-6.9,2.3c-0.8,0.4-1.7,0.3-2.7,1C35.8,25,36.5,24.5,37.1,24z M40.6,24.7c0.4-0.1,0.7,0,0.8,0.5
			c0.2,1,0,2-0.9,2.6c-2.2,1.4-4.1,3.1-6.1,4.7c-1.2,1-2.4,1.7-3.8,2.2c-0.6,0.2-1.1,0.6-2,1.1c1.1-2.2,2.4-3.8,3.4-5.6
			C33.9,26.6,37.4,25.8,40.6,24.7z M19,43.5c-0.3,0.2-0.6,0.4-0.9,0.6c-0.3-0.4-0.1-0.5,0.1-0.7c2.6-2.3,4.4-5.2,6.5-7.9
			c1.8-2.4,4.2-4.2,6.7-5.9c-1.1,2.5-2.7,4.6-4,6.9c-0.9,1.5-1.9,2.9-3.3,3.9c-0.3,0.2-0.6,0.5-0.6,0.9c0,0,0,0,0,0c0,0,0,0,0,0
			c0,0,0,0,0,0c0.7-0.4,1.3-0.9,2.3-1.5c-0.6,1.5-1.1,2.8-1.7,3.9c-1,1.7-1.9,3.5-2.6,5.3c-0.6,1.6-2,2.3-3.6,2.7
			c-0.5,0.1-0.5-0.2-0.6-0.5c-1.1-3.2-0.2-5.6,2.5-7.6c1.2-0.9,2.5-1.5,3.8-2.3c0,0,0,0,0,0C21.7,41.5,20.5,42.7,19,43.5z"/>
		<path class="st1" d="M82.3,8.6c1.2,0,2.2-0.9,2.3-2c0-0.7-1-1.7-1.9-1.7c-1.1,0-1.8,0.8-1.9,2.1C80.7,8.2,81.3,8.6,82.3,8.6z"/>
		<path class="st1" d="M106.8,21.5c0.9,0,2.1-1.1,1.9-1.8c-0.2-1-0.9-1.6-1.9-1.7c-1-0.1-1.7,0.9-1.6,2.6
			C105.1,21.6,106.1,21.5,106.8,21.5z"/>
		<path class="st1" d="M49.3,9.4c0.5,0,1.7-1.1,1.6-1.7c-0.1-0.6-0.2-1.4-1.1-1.4c-0.9,0-1.3,0.6-1.3,1.5
			C48.5,8.7,48.8,9.4,49.3,9.4z"/>
		<path class="st1" d="M31.9,63.5c1.4,0.3,2-0.8,2.9-1.5c0.5-0.4,0.6-1,0.4-1.6c-0.2-0.7-0.8-0.7-1.4-0.7c-0.7,0-1.4,0.2-2.1,0.4
			c-0.9,0.4-1.2,1.2-1.2,2C30.4,63.2,31.1,63.3,31.9,63.5z"/>
		<path class="st1" d="M13.3,77.6c-0.8-0.1-1.4,1-1.3,2.4c0,0.7,0.2,1.3,0.9,1.5c0.7,0.2,1.7-1.3,1.7-2.5
			C14.4,78.5,14.2,77.7,13.3,77.6z"/>
	</g>
</g>
</svg>
